<svg xmlns="http://www.w3.org/2000/svg" viewBox="0 0 1 30">
    <g id="Слой_2" data-name="Слой 2">
        <g id="_1_экран3" data-name="1 экран3">
            <g id="Разделитель3">
                <rect width="1" height="30"/>
            </g>
        </g>
    </g>
</svg>